{
  "databaseSettings": {
    "host": "localhost",
    "user": "root",
    "password": "codebrew",
    "database": "swimpy"
  },
  "EmailCredentials": {
    "email": "",
    "password": ""
  },
  "PORT":8000,
  "s3BucketCredentials": {
    "bucket": "",
    "accessKeyId": "",
    "secretAccessKey": "",
    "s3URL": ""
  }
}
